[gd_scene load_steps=9 format=3 uid="uid://bvwxfgygm2xb8"]

[ext_resource type="Script" path="res://types/multiplayer/multiplayer.gd" id="1_r1kd6"]
[ext_resource type="Script" path="res://types/multiplayer/ping.gd" id="1_tafn1"]
[ext_resource type="PackedScene" uid="uid://cbhx1xme0sb7k" path="res://entities/player/player.tscn" id="2_og1vb"]
[ext_resource type="PackedScene" uid="uid://c88l3h0ph00c7" path="res://entities/flag/flag.tscn" id="3_h0rie"]
[ext_resource type="PackedScene" uid="uid://b8bosdd0o1lu7" path="res://interfaces/scoreboard/scoreboard.tscn" id="4_rhwwf"]
[ext_resource type="Script" path="res://types/multiplayer/teams.gd" id="5_op0if"]
[ext_resource type="Script" path="res://types/multiplayer/players.gd" id="7_ycqj1"]

[sub_resource type="SceneReplicationConfig" id="SceneReplicationConfig_g11jg"]
properties/0/path = NodePath(".:mode")
properties/0/spawn = true
properties/0/replication_mode = 2

[node name="Multiplayer" type="Node" node_paths=PackedStringArray("scoreboard")]
script = ExtResource("1_r1kd6")
scoreboard = NodePath("Scoreboard/Scoreboard")
_PLAYER = ExtResource("2_og1vb")
_FLAG = ExtResource("3_h0rie")

[node name="MultiplayerSync" type="MultiplayerSynchronizer" parent="."]
replication_config = SubResource("SceneReplicationConfig_g11jg")

[node name="Ping" type="Node" parent="."]
script = ExtResource("1_tafn1")
active = true
sync_interval = 0.5

[node name="Teams" type="Node" parent="."]
script = ExtResource("5_op0if")

[node name="Scoreboard" type="Node" parent="."]

[node name="Scoreboard" parent="Scoreboard" instance=ExtResource("4_rhwwf")]

[node name="Map" type="Node" parent="."]

[node name="MapSpawner" type="MultiplayerSpawner" parent="."]
_spawnable_scenes = PackedStringArray("res://maps/desert/desert.tscn", "res://maps/blaze/blaze.tscn")
spawn_path = NodePath("../Map")
spawn_limit = 1

[node name="Players" type="Node" parent="."]
script = ExtResource("7_ycqj1")

[node name="PlayerSpawner" type="MultiplayerSpawner" parent="."]
_spawnable_scenes = PackedStringArray("res://entities/player/player.tscn")
spawn_path = NodePath("../Players")

[node name="Objectives" type="Node" parent="."]

[node name="ObjectiveSpawner" type="MultiplayerSpawner" parent="."]
_spawnable_scenes = PackedStringArray("res://entities/flag/flag.tscn")
spawn_path = NodePath("../Objectives")
