[gd_scene load_steps=5 format=3 uid="uid://dak767xehqa6x"]

[ext_resource type="Script" path="res://entities/weapons/grenade_launcher/projectile.gd" id="1_i8v2u"]
[ext_resource type="PackedScene" uid="uid://bb43ae1f5j8lw" path="res://entities/weapons/grenade_launcher/explosion.tscn" id="2_cxty7"]
[ext_resource type="Shape3D" uid="uid://b8d4jwso2dcdu" path="res://entities/weapons/grenade_launcher/assets/resources/projectile_shape.tres" id="3_fxdq6"]

[sub_resource type="StandardMaterial3D" id="StandardMaterial3D_miu4v"]
albedo_color = Color(0.2, 0.2, 0.2, 1)

[node name="GrenadeLauncherProjectile" type="Node3D"]
script = ExtResource("1_i8v2u")
EXPLOSION = ExtResource("2_cxty7")
speed = 54.0

[node name="ShapeCast3D" type="ShapeCast3D" parent="."]
shape = ExtResource("3_fxdq6")
target_position = Vector3(0, 0, 0)
collision_mask = 2147483649

[node name="Head" type="CSGSphere3D" parent="."]
transform = Transform3D(1, 0, 0, 0, 1, 0, 0, 0, 1, 0.000792712, 0, -0.000432983)
radius = 0.062
radial_segments = 24
rings = 12
material = SubResource("StandardMaterial3D_miu4v")

[node name="Body" type="CSGCylinder3D" parent="."]
transform = Transform3D(0.125, 0, -2.64698e-23, 2.64698e-23, -2.71011e-09, 0.125, 0, -0.062, -5.46392e-09, 0, 0, -0.062)
sides = 12
material = SubResource("StandardMaterial3D_miu4v")
