[gd_scene load_steps=7 format=3 uid="uid://bbeecp3jusppn"]

[ext_resource type="Script" path="res://interfaces/hud/iffs/iff.gd" id="1_g6kgb"]
[ext_resource type="Shader" uid="uid://n2dcb4l0qun2" path="res://interfaces/progress_bar/resources/visual_shader.res" id="2_8cjkh"]
[ext_resource type="PackedScene" uid="uid://chy8tm6hvummq" path="res://interfaces/progress_bar/ProgressBar3D.tscn" id="2_h0pl8"]
[ext_resource type="Texture2D" uid="uid://cpb6vpa0c74rl" path="res://interfaces/waypoint/assets/waypoint.svg" id="4_lrbtk"]

[sub_resource type="ShaderMaterial" id="ShaderMaterial_4quui"]
render_priority = 0
shader = ExtResource("2_8cjkh")

[sub_resource type="QuadMesh" id="QuadMesh_ks8vt"]
resource_local_to_scene = true
material = SubResource("ShaderMaterial_4quui")
size = Vector2(0.35, 0.025)
center_offset = Vector3(0, 0.09, 0)

[node name="IFF" type="Node3D"]
script = ExtResource("1_g6kgb")
value = 128.0
border = 0.4
billboard = 1

[node name="Username" type="Label3D" parent="."]
transform = Transform3D(0.5, 0, 0, 0, 0.5, 0, 0, 0, 0.5, 0, 0, 0)
offset = Vector2(0, 64)
billboard = 1
fixed_size = true
text = "Newblood"
font_size = 24

[node name="ProgressBar3D" parent="." instance=ExtResource("2_h0pl8")]
instance_shader_parameters/billboard = 1
instance_shader_parameters/border = 0.0
instance_shader_parameters/fill = Color(1, 1, 1, 1)
instance_shader_parameters/size = Vector2(0.35, 0.025)
mesh = SubResource("QuadMesh_ks8vt")
border = 0.0
billboard = 1
fill = Color(1, 1, 1, 1)

[node name="Chevron" type="Sprite3D" parent="."]
transform = Transform3D(0.04, 0, 0, 0, 0.04, 0, 0, 0, 0.04, 0, 0, 0)
offset = Vector2(0, 64)
billboard = 1
fixed_size = true
texture = ExtResource("4_lrbtk")
